{
	"schemaVersion": 1,
	"id": "sillyroads",
	"version": "${version}",
	"name": "Silly Roads",
	"description": "Silly road mod made by me :3",
	"authors": [
		"Serenya"
	],
	"contact": {
		"homepage": "https://codeberg.org/sappho",
		"sources": "https://codeberg.org/sappho/FabricExampleMod"
	},
	"license": "LGPL-3.0-only",
	"icon": "assets/sillyroads/icon.png",
	"environment": "*",
	"entrypoints": {
		"main": [
			"uwu.serenya.silly_road.SillyRoads"
		],
		"client": [
			"uwu.serenya.silly_road.client.SillyRoadsClient"
		]
	},
	"mixins": [
		"sillyroadmod.mixins.json"
	],
	"depends": {
		"fabricloader": ">=0.15.0",
		"minecraft": "~1.20.1",
		"java": ">=17",
		"fabric-api": ">=0.90.0"
	},
	"suggests": {
	}
}